{
    "data": [
        {
            "name": "tuminal abas",
            "username": "tuminal_abas_107",
            "email": "tum@mail.com",
            "phone": "08658656865",
            "avatar": null,
            "facebook": null,
            "telegram": null,
            "google": null,
            "email_verified_at": null,
            "balance": 0,
            "is_active": 1,
            "token_api": null,
            "created_at": "2023-07-01T20:19:28.000000Z",
            "updated_at": "2023-07-01T20:19:28.000000Z",
            "deleted_at": null,
            "reff": null,
            "has_id": "p9r10gndl7",
            "roles": []
        }
    ],

 "meta":[ {
        "page": "1",
        "pages": 6,
        "perpage": "10",
        "total": 57,
        "sort": "desc",
        "field": "users.created_at"
    }
 ]
}
